Cross-Platform File System Operations Based on libuv
…
Tabulate and display folder size.

dir_info("src", recursive = TRUE) %>%
  group_by(directory = path_dir(path)) %>%
  tally(wt = size, sort = TRUE)
#> # A tibble: 53 x 2
#>    directory                                        n
#>    <fs::path>                             <fs::bytes>
#>  1 src                                          5.33M
#>  2 src/libuv                                    2.47M
#>  3 src/libuv/test                             869.22K
#>  4 src/libuv/src/win                          683.14K
#>  5 src/libuv/src/unix                         518.71K
#>  6 src/unix                                   429.67K
#>  7 src/libuv/docs/src/static                  332.05K
#>  8 src/libuv/m4                               319.95K
#>  9 src/libuv/include                          192.33K
#> 10 src/libuv/docs/src/static/diagrams.key     191.74K
#> # ... with 43 more rows
…
